Tidyverse basics
…
background <- paste(url, 'background-clean.csv', sep = '') %>%
  read_csv()

interest <- paste(url, 'interest-clean.csv', sep = '') %>%
  read_csv()

metadata <- paste(url, 'survey-metadata.csv', sep = '') %>%
  read_csv()

You can view the data in one of two ways:

# print the data frame for inspection in the console
background

# A tibble: 41 × 30
   response.id prog.prof prog.comf math.prof math.comf stat.prof stat.comf
         <dbl> <chr>         <dbl> <chr>         <dbl> <chr>         <dbl>
 1           2 Adv               5 Adv               4 Adv               5
 2           3 Int               4 Adv               5 Adv               5
 3           4 Adv               4 Adv               4 Adv               5
 4           5 Adv               5 Adv               5 Adv               4
 5           6 Int               4 Adv               5 Adv               5
 6           7 Int               4 Int               3 Int               3
 7           8 Adv               5 Adv               4 Adv               4
 8           9 Int               4 Int               4 Adv               5
 9          10 Int               4 Int               3 Int               4
10          11 Int               3 Adv               3 Adv               4
# ℹ 31 more rows
# ℹ 23 more variables: updv.num <chr>, dom <chr>, consent <chr>,
#   `PSTAT120A-B` <chr>, PSTAT122 <chr>, PSTAT126 <chr>, PSTAT131 <chr>,
#   PSTAT134 <chr>, `PSTAT160A-B` <chr>, CS9 <chr>, PSTAT100 <chr>,
#   PSTAT174 <chr>, PSTAT115 <chr>, PSTAT127 <chr>, CS16 <chr>, ECE180 <chr>,
#   `CS5A-B` <chr>, PSTAT175 <chr>, `CS130A-B` <chr>, `CS165A-B` <chr>,
#   LING110 <chr>, ECON145 <chr>, rsrch <lgl>
…
Core verbs

Action

For each verb listed below, copy the code chunk into your script and execute.

Go through the list with your neighbor and check your understanding by describing what the code example accomplishes.

filter – filter the rows of a data frame according to a condition and return a subset of rows meeting that condition

# filter rows
background %>%
  filter(math.comf > 3)

# A tibble: 25 × 30
   response.id prog.prof prog.comf math.prof math.comf stat.prof stat.comf
         <dbl> <chr>         <dbl> <chr>         <dbl> <chr>         <dbl>
 1           2 Adv               5 Adv               4 Adv               5
 2           3 Int               4 Adv               5 Adv               5
 3           4 Adv               4 Adv               4 Adv               5
 4           5 Adv               5 Adv               5 Adv               4
 5           6 Int               4 Adv               5 Adv               5
 6           8 Adv               5 Adv               4 Adv               4
 7           9 Int               4 Int               4 Adv               5
 8          13 Int               4 Adv               5 Int               4
 9          14 Int               4 Adv               5 Int               4
10          15 Int               3 Adv               4 Adv               4
# ℹ 15 more rows
# ℹ 23 more variables: updv.num <chr>, dom <chr>, consent <chr>,
#   `PSTAT120A-B` <chr>, PSTAT122 <chr>, PSTAT126 <chr>, PSTAT131 <chr>,
#   PSTAT134 <chr>, `PSTAT160A-B` <chr>, CS9 <chr>, PSTAT100 <chr>,
#   PSTAT174 <chr>, PSTAT115 <chr>, PSTAT127 <chr>, CS16 <chr>, ECE180 <chr>,
#   `CS5A-B` <chr>, PSTAT175 <chr>, `CS130A-B` <chr>, `CS165A-B` <chr>,
#   LING110 <chr>, ECON145 <chr>, rsrch <lgl>

select – select a subset of columns from a data frame

# select a column
background %>%
  select(math.comf)

# A tibble: 41 × 1
   math.comf
       <dbl>
 1         4
 2         5
 3         4
 4         5
 5         5
 6         3
 7         4
 8         4
 9         3
10         3
# ℹ 31 more rows
…
 [1]  TRUE FALSE  TRUE FALSE FALSE  TRUE  TRUE FALSE FALSE FALSE FALSE FALSE
[13] FALSE FALSE  TRUE FALSE  TRUE FALSE  TRUE FALSE FALSE FALSE FALSE FALSE
[25] FALSE  TRUE  TRUE FALSE  TRUE  TRUE FALSE  TRUE  TRUE  TRUE FALSE FALSE
[37] FALSE FALSE  TRUE FALSE  TRUE

mutate – define a new column as a function of existing columns

# define a new variable
background %>%
  mutate(avg.comf = (math.comf + prog.comf + stat.comf)/3)

# A tibble: 41 × 31
   response.id prog.prof prog.comf math.prof math.comf stat.prof stat.comf
         <dbl> <chr>         <dbl> <chr>         <dbl> <chr>         <dbl>
 1           2 Adv               5 Adv               4 Adv               5
 2           3 Int               4 Adv               5 Adv               5
 3           4 Adv               4 Adv               4 Adv               5
 4           5 Adv               5 Adv               5 Adv               4
 5           6 Int               4 Adv               5 Adv               5
 6           7 Int               4 Int               3 Int               3
 7           8 Adv               5 Adv               4 Adv               4
 8           9 Int               4 Int               4 Adv               5
 9          10 Int               4 Int               3 Int               4
10          11 Int               3 Adv               3 Adv               4
# ℹ 31 more rows
# ℹ 24 more variables: updv.num <chr>, dom <chr>, consent <chr>,
#   `PSTAT120A-B` <chr>, PSTAT122 <chr>, PSTAT126 <chr>, PSTAT131 <chr>,
#   PSTAT134 <chr>, `PSTAT160A-B` <chr>, CS9 <chr>, PSTAT100 <chr>,
#   PSTAT174 <chr>, PSTAT115 <chr>, PSTAT127 <chr>, CS16 <chr>, ECE180 <chr>,
#   `CS5A-B` <chr>, PSTAT175 <chr>, `CS130A-B` <chr>, `CS165A-B` <chr>,
#   LING110 <chr>, ECON145 <chr>, rsrch <lgl>, avg.comf <dbl>

These operations can be chained together, for example:

# sequence of verbs
background %>%
  filter(stat.prof == 'Adv') %>%
  mutate(avg.comf = (math.comf + prog.comf + stat.comf)/3) %>%
  select(avg.comf, rsrch) 

# A tibble: 23 × 2
   avg.comf rsrch
      <dbl> <lgl>
 1     4.67 TRUE 
 2     4.67 FALSE
 3     4.33 TRUE 
 4     4.67 FALSE
 5     4.67 FALSE
 6     4.33 TRUE 
 7     4.33 FALSE
 8     3.33 FALSE
 9     3.67 FALSE
10     4.33 TRUE 
# ℹ 13 more rows
…
# A tibble: 1 × 3
  prog.comf math.comf stat.comf
      <dbl>     <dbl>     <dbl>
1      3.85      3.80      3.98

Grouped summaries are summaries computed separately among subsets of observations. To define a grouping structure using an existing column, use group_by() . Notice the ‘groups’ attribute printed with the output.

# create a grouping
background %>%
  group_by(stat.prof)

# A tibble: 41 × 30
# Groups:   stat.prof [2]
   response.id prog.prof prog.comf math.prof math.comf stat.prof stat.comf
         <dbl> <chr>         <dbl> <chr>         <dbl> <chr>         <dbl>
 1           2 Adv               5 Adv               4 Adv               5
 2           3 Int               4 Adv               5 Adv               5
 3           4 Adv               4 Adv               4 Adv               5
 4           5 Adv               5 Adv               5 Adv               4
 5           6 Int               4 Adv               5 Adv               5
 6           7 Int               4 Int               3 Int               3
 7           8 Adv               5 Adv               4 Adv               4
 8           9 Int               4 Int               4 Adv               5
 9          10 Int               4 Int               3 Int               4
10          11 Int               3 Adv               3 Adv               4
# ℹ 31 more rows
# ℹ 23 more variables: updv.num <chr>, dom <chr>, consent <chr>,
#   `PSTAT120A-B` <chr>, PSTAT122 <chr>, PSTAT126 <chr>, PSTAT131 <chr>,
#   PSTAT134 <chr>, `PSTAT160A-B` <chr>, CS9 <chr>, PSTAT100 <chr>,
#   PSTAT174 <chr>, PSTAT115 <chr>, PSTAT127 <chr>, CS16 <chr>, ECE180 <chr>,
#   `CS5A-B` <chr>, PSTAT175 <chr>, `CS130A-B` <chr>, `CS165A-B` <chr>,
#   LING110 <chr>, ECON145 <chr>, rsrch <lgl>
…
